root/model/dao/exceptions/NonexistentEntityException.class
root/resources/JavaEE8Resource.class
root/model/dao/PalabrasDAO.class
root/persistence/entities/Palabras.class
root/services/AppConfig.class
root/model/dao/exceptions/IllegalOrphanException.class
root/model/dao/exceptions/PreexistingEntityException.class
root/controller/Controller.class
root/services/PalabraRestLocal.class
root/JAXRSConfiguration.class
root/services/OxfordApiRest.class
